[
  {
    "hc-key": "tz-mw",
    "value": "bugando",
    "region": "Mwanza"
  },
  {
    "hc-key": "tz-kr",
    "value": "bugando",
    "region": "Kagera"
  },
  {
    "hc-key": "tz-pw",
    "value": "muhimbili",
    "region": "Pwani"
  },
  {
    "hc-key": "tz-mo",
    "value": "muhimbili",
    "region": "Mororgoro"
  },
  {
    "hc-key": "tz-nj",
    "value": "mbeya",
    "region": "Njombe"
  },
  {
    "hc-key": "tz-zs",
    "value": "zanzibar",
    "region": "Zanzibar South"
  },
  {
    "hc-key": "tz-zw",
    "value": "zanzibar",
    "region": "Zanzibar West"
  },
  {
    "hc-key": "tz-km",
    "value": "bugando",
    "region": "Kigoma"
  },
  {
    "hc-key": "tz-mt",
    "value": "muhimbili",
    "region": "Mtwara"
  },
  {
    "hc-key": "tz-rv",
    "value": "mbeya",
    "region": "Ruvuma"
  },
  {
    "hc-key": "tz-pn",
    "value": "zanzibar",
    "region": "Pemba North"
  },
  {
    "hc-key": "tz-ps",
    "value": "zanzibar",
    "region": "Pemba South"
  },
  {
    "hc-key": "tz-sd",
    "value": "bugando",
    "region": "Singida"
  },
  {
    "hc-key": "tz-sh",
    "value": "bugando",
    "region": "Shinyanga"
  },
  {
    "hc-key": "tz-as",
    "value": "kcmc",
    "region": "Arusha"
  },
  {
    "hc-key": "tz-my",
    "value": "kcmc",
    "region": "Manyara"
  },
  {
    "hc-key": "tz-ma",
    "value": "bugando",
    "region": "Mara"
  },
  {
    "hc-key": "tz-si",
    "value": "bugando",
    "region": "Simiyu"
  },
  {
    "hc-key": "tz-mb",
    "value": "mbeya",
    "region": "Mbeya"
  },
  {
    "hc-key": "tz-rk",
    "value": "mbeya",
    "region": "Rukwa"
  },
  {
    "hc-key": "tz-ds",
    "value": "temeke",
    "region": "Dar es Salaam"
  },
  {
    "hc-key": "tz-do",
    "value": "muhimbili",
    "region": "Dodoma"
  },
  {
    "hc-key": "tz-tb",
    "value": "bugando",
    "region": "Tabora"
  },
  {
    "hc-key": "tz-li",
    "value": "muhimbili",
    "region": "Lindi"
  },
  {
    "hc-key": "tz-ge",
    "value": "bugando",
    "region": "Geita"
  },
  {
    "hc-key": "tz-kl",
    "value": "kcmc",
    "region": "Kilimanjaro"
  },
  {
    "hc-key": "tz-tn",
    "value": "kcmc",
    "region": "Tanga"
  },
  {
    "hc-key": "tz-ka",
    "value": "mbeya",
    "region": "Katavi"
  },
  {
    "hc-key": "tz-ir",
    "value": "mbeya",
    "region": "Iringa"
  }
]